{
    "KPlugin": {
        "Description": "Execute query on SQL databases",
        "Description[az]": "SQL verilənlər bazasında sorğu icra edin",
        "Description[bg]": "Изпълнение на заявки за бази данни SQL",
        "Description[ca@valencia]": "Executa consultes a bases de dades SQL",
        "Description[ca]": "Executa consultes a bases de dades SQL",
        "Description[cs]": "Vykonat dotaz v SQL databázích",
        "Description[de]": "Anfragen an SQL-Datenbanken ausführen",
        "Description[el]": "Εκτέλεση ερώτησης σε SQL βάσεις δεδομένων",
        "Description[en_GB]": "Execute query on SQL databases",
        "Description[eo]": "Efektivigi informpeton sur SQL-datumbazoj",
        "Description[es]": "Ejecutar consultas a bases de datos SQL",
        "Description[eu]": "Exekutatu kontsulta SQL datu-baseetan",
        "Description[fi]": "Suorittaa kyselyjä SQL-tietokannoista",
        "Description[fr]": "Exécute une requête vers les bases de données SQL",
        "Description[gl]": "Executa consultas en bases de datos SQL.",
        "Description[hu]": "Lekérdezések végrehajtása SQL adatbázisokon",
        "Description[ia]": "Executa demandas sur base de datos SQL",
        "Description[ie]": "Demandar bases de data SQL",
        "Description[it]": "Interroga banche dati SQL",
        "Description[ka]": "SQL ბაზაზე გასაშვები მოთოვნა",
        "Description[ko]": "SQL 데이터베이스에 질의 수행",
        "Description[nl]": "Zoekopdracht uitvoeren op SQL-databases",
        "Description[pl]": "Wykonaj kwerendę na bazie danych SQL",
        "Description[pt]": "Executar uma pesquisa em bases de dados SQL",
        "Description[ru]": "Выполнение запросов SQL к базам данных",
        "Description[sk]": "Vykonanie dopytu na SQL databázach",
        "Description[sl]": "Izvede poizvedbo na podatkovnih bazah SQL",
        "Description[sv]": "Utför förfrågan i SQL-databaser",
        "Description[tr]": "SQL veritabanlarında sorgu çalıştır",
        "Description[uk]": "Виконання запитів до баз даних SQL",
        "Description[vi]": "Thực thi truy vấn trong các cơ sở dữ liệu SQL",
        "Description[x-test]": "xxExecute query on SQL databasesxx",
        "Description[zh_CN]": "在 SQL 数据库中执行查询",
        "Name": "SQL Plugin",
        "Name[ar]": "ملحقة SQL",
        "Name[az]": "SQL qoşması",
        "Name[bg]": "SQL приставка",
        "Name[ca@valencia]": "Connector SQL",
        "Name[ca]": "Connector SQL",
        "Name[cs]": "Modul SQL",
        "Name[de]": "SQL-Modul",
        "Name[el]": "Πρόσθετο SQL",
        "Name[en_GB]": "SQL Plugin",
        "Name[eo]": "SQL-Kromaĵo",
        "Name[es]": "Complemento SQL",
        "Name[eu]": "SQL plugina",
        "Name[fi]": "SQL-liitännäinen",
        "Name[fr]": "Module externe SQL",
        "Name[gl]": "Complemento de SQL",
        "Name[hu]": "SQL bővítmény",
        "Name[ia]": "Plug-in SQL",
        "Name[ie]": "Plugin de SQL",
        "Name[it]": "Estensione SQL",
        "Name[ka]": "SQL დამატება",
        "Name[ko]": "SQL 플러그인",
        "Name[my]": "အက်စ်ကျူအယ် ပလပ်ဂင်",
        "Name[nl]": "SQL-plug-in",
        "Name[pl]": "Wtyczka SQL",
        "Name[pt]": "'Plugin' de SQL",
        "Name[pt_BR]": "Plugin do SQL",
        "Name[ru]": "SQL",
        "Name[sk]": "SQL Doplnok",
        "Name[sl]": "Vtičnik SQL",
        "Name[sv]": "SQL-insticksprogram",
        "Name[tr]": "SQL Eklentisi",
        "Name[uk]": "Додаток SQL",
        "Name[vi]": "Phần cài cắm SQL",
        "Name[x-test]": "xxSQL Pluginxx",
        "Name[zh_CN]": "SQL 插件",
        "ServiceTypes": [
            "KTextEditor/Plugin"
        ]
    }
}
