{
    "KPlugin": {
        "Description": "Plugin that allows Python scripting for Kate",
        "Description[az]": "Kate üçün Python senarisi yaratmağa imkan verən qoşma",
        "Description[bg]": "Приставка за Kate, която предоставя възможност за писане на скриптове на Python",
        "Description[ca@valencia]": "Connector per a Kate que permet crear scripts en Python",
        "Description[ca]": "Connector per al Kate que permet crear scripts en Python",
        "Description[de]": "Modul zum Skripten von Kate in Python",
        "Description[el]": "Πρόσθετο που επιτρέπει τη συγγραφή σεναρίων Python για το Kate",
        "Description[en_GB]": "Plugin that allows Python scripting for Kate",
        "Description[eo]": "Kromaĵo kiu permesas Python-skripton por Kate",
        "Description[es]": "Complemento que permite scripts en Python para Kate",
        "Description[eu]": "Kate-n, Python gidoiak egiteko aukera ematen duen plugina",
        "Description[fi]": "Liitännäinen, joka mahdollistaa Katessa Python-skriptauksen",
        "Description[fr]": "Module externe permettant des scripts en Python pour Kate",
        "Description[gl]": "Complemento que permite guionización en Python para Kate.",
        "Description[ia]": "Plugin que permitte scripting de Python per Kate",
        "Description[it]": "Estensione che permette di usare gli script di Python in Kate",
        "Description[ka]": "დამატება, რომელიც Kate-ში Python-ის სკრიპტებს დაუშვებს",
        "Description[ko]": "Kate용 Python 스크립팅 플러그인",
        "Description[nl]": "Plug-in die scripts maken voor Kate in Python biedt",
        "Description[pl]": "Wtyczka, która umożliwia pisanie skryptów Pythona w Kate",
        "Description[pt]": "'Plugin' que permite programar para o Kate em Python",
        "Description[ru]": "Подключаемый модель, позволяющий создавать сценарии на языке Python",
        "Description[sk]": "Zásuvný modul, ktorý umožňuje skriptovanie v Pythone pre Kate",
        "Description[sl]": "Vtičnik, ki dovoljuje Python skript za Kate",
        "Description[sv]": "Insticksprogram som tillåter skript med Python för Kate",
        "Description[tr]": "Kate için Python betik yazımını etkinleştiren eklenti",
        "Description[uk]": "Додаток, який уможливлює сценарії Python для Kate",
        "Description[vi]": "Phần cài cắm cho phép chạy kịch bản Python cho Kate",
        "Description[x-test]": "xxPlugin that allows Python scripting for Katexx",
        "Description[zh_CN]": "Kate 的 Python 脚本编程功能插件",
        "Name": "Python Scripting",
        "Name[az]": "Python senarisi",
        "Name[bg]": "Python Scripting",
        "Name[ca@valencia]": "Crear scripts en Python",
        "Name[ca]": "Crear scripts en Python",
        "Name[cs]": "Skriptování v Pythonu",
        "Name[de]": "Python-Skriptunterstützung",
        "Name[el]": "Συγγραφή σεναρίων Python",
        "Name[en_GB]": "Python Scripting",
        "Name[eo]": "Python-Skriptado",
        "Name[es]": "Scripts en Python",
        "Name[eu]": "Python gidoiak",
        "Name[fi]": "Python-skriptaus",
        "Name[fr]": "Langage de scripts sous Python",
        "Name[gl]": "Guionización en Python",
        "Name[ia]": "Scriptingde Python",
        "Name[it]": "Script di Python",
        "Name[ka]": "Python-ის სკრიპტები",
        "Name[ko]": "Python 스크립팅",
        "Name[nl]": "Scripts maken in Python",
        "Name[pl]": "Skrypty Pythona",
        "Name[pt]": "Programação em Python",
        "Name[ru]": "Сценарии на языке Python",
        "Name[sk]": "Skriptovanie v Pythone",
        "Name[sl]": "Python skript",
        "Name[sv]": "Pythonskript",
        "Name[tr]": "Python Betik Yazımı",
        "Name[uk]": "Сценарії на Python",
        "Name[vi]": "Kịch bản Python",
        "Name[x-test]": "xxPython Scriptingxx",
        "Name[zh_CN]": "Python 脚本编程",
        "ServiceTypes": [
            "KTextEditor/Plugin"
        ]
    }
}
