{
    "KPlugin": {
        "Description": "Have a terminal at the ready, using KDE's Konsole widget",
        "Description[az]": "KDE-nin Konsole vidjetinə əsaslanan hazır terminal",
        "Description[bg]": "Използвайки приставката KDE Konsole, разполагате с терминал в готовност",
        "Description[ca@valencia]": "Té un terminal preparat, utilitzant el giny de Konsole de KDE",
        "Description[ca]": "Té un terminal preparat, usant el giny del Konsole de KDE",
        "Description[de]": "Stellt ein Terminal mit KDE's Konsole bereit",
        "Description[el]": "Ένα πρόχειρο τερματικό, με χρήση του γραφικού συστατικού της κονσόλας του KDE",
        "Description[en_GB]": "Have a terminal at the ready, using KDE's Konsole widget",
        "Description[eo]": "Havu terminalon preta, uzante la Konsole-fenestraĵon de KDE",
        "Description[es]": "Disponer de una terminal a punto, usando el widget de Konsole de KDE",
        "Description[eu]": "Izan terminal bat prest, KDEren Konsole trepeta erabiliz",
        "Description[fi]": "Pääte aina valmiina KDE:n Konsole-sovelman avulla",
        "Description[fr]": "Conservez un terminal à disposition grâce au composant graphique Konsole de KDE",
        "Description[gl]": "Teña un terminal a man co trebello de Konsole de KDE.",
        "Description[hu]": "Használatra kész terminál a KDE Konsole elemének használatával",
        "Description[ia]": "Tu ha un termin preste, usante le widget de Konsole de KDE",
        "Description[ie]": "Un terminal che manu quel usa li widget de Konsole",
        "Description[it]": "Avere un terminale pronto, usando l'oggetto Konsole di KDE",
        "Description[ka]": "ტერმინალის მზად ქონა DKE-ის Konsole-ის ვიჯეტით",
        "Description[ko]": "KDE의 Konsole 위젯을 사용하여 곧바로 터미널 열기",
        "Description[nl]": "Een terminal gereed hebben, met gebruik van de Konsole-widget van KDE",
        "Description[pl]": "Miej terminal pod ręką przy użyciu elementu Konsoli KDE",
        "Description[pt]": "Ter um terminal à disposição, usando o módulo do Konsole do KDE",
        "Description[ru]": "Удобный доступ к терминалу с помощью виджета Konsole KDE",
        "Description[sk]": "Majte terminál poruke, pomocou Konsole widgetu od KDE",
        "Description[sl]": "Imej pripravljen terminal z uporabo gradnika KDE Konsole",
        "Description[sv]": "Ha en terminal redo genom att använda KDE:s grafiska terminalkomponent",
        "Description[tr]": "KDE'nin Konsole araç takımını kullanarak elinizin altında bir uçbirim bulundurun",
        "Description[uk]": "Термінал на основі віджета Konsole KDE",
        "Description[vi]": "Có một trình dòng lệnh luôn sẵn sàng, với phụ kiện Konsole của KDE",
        "Description[x-test]": "xxHave a terminal at the ready, using KDE's Konsole widgetxx",
        "Description[zh_CN]": "随处均可调用的命令行终端，基于 KDE 的 Konsole 部件构建。",
        "Name": "Terminal",
        "Name[az]": "Terminal",
        "Name[bg]": "Терминал",
        "Name[ca@valencia]": "Terminal",
        "Name[ca]": "Terminal",
        "Name[cs]": "Terminál",
        "Name[de]": "Terminal",
        "Name[en_GB]": "Terminal",
        "Name[eo]": "Terminalo",
        "Name[es]": "Terminal",
        "Name[eu]": "Terminala",
        "Name[fi]": "Pääte",
        "Name[fr]": "Console",
        "Name[gl]": "Terminal",
        "Name[ia]": "Terminal",
        "Name[it]": "Terminale",
        "Name[ka]": "ტერმინალი",
        "Name[ko]": "터미널",
        "Name[nl]": "Terminal",
        "Name[pl]": "Terminal",
        "Name[pt]": "Terminal",
        "Name[pt_BR]": "Terminal",
        "Name[ru]": "Терминал",
        "Name[sl]": "Terminal",
        "Name[sv]": "Terminal",
        "Name[tr]": "Uçbirim",
        "Name[uk]": "Термінал",
        "Name[vi]": "Dòng lệnh",
        "Name[x-test]": "xxTerminalxx",
        "Name[zh_CN]": "终端",
        "ServiceTypes": [
            "KTextEditor/Plugin"
        ]
    }
}
